module gitlab.com/alexmorbo/skillbox

go 1.16

require (
	github.com/gorilla/mux v1.8.0 // indirect
	github.com/mitchellh/go-homedir v1.1.0 // indirect
	github.com/rs/zerolog v1.22.0 // indirect
	github.com/spf13/cobra v1.1.3 // indirect
	github.com/spf13/viper v1.7.1 // indirect
)
